statistical-analysis
…
model_name <- names(models)[i]

model_results <- broom::tidy(models[[i]])

model_results$model <- model_name # add a column to identify the model

all_results <- rbind(all_results, model_results)

}

# Now all_results contains the combined results of all models

print(all_results)

# A tibble: 24 × 6
   term                        estimate std.error statistic   p.value model     
   <chr>                          <dbl>     <dbl>     <dbl>     <dbl> <chr>     
 1 (Intercept)                   6.66     0.183      36.4   2.38e-124 PhysicalA…
 2 Physical.Activity.Level       0.0109   0.00292     3.74  2.12e-  4 PhysicalA…
 3 (Intercept)                   6.93     0.123      56.3   1.09e-182 Occupation
 4 Occupation_GroupEducation     0.0444   0.206       0.216 8.29e-  1 Occupation
 5 Occupation_GroupEngineering   1.37     0.177       7.72  1.13e- 13 Occupation
 6 Occupation_GroupHealthcare    0.0694   0.151       0.460 6.46e-  1 Occupation
 7 Occupation_GroupLawyer        0.963    0.196       4.92  1.32e-  6 Occupation
 8 Occupation_GroupScience      -1.93     0.536      -3.60  3.63e-  4 Occupation
 9 (Intercept)                   4.57     0.273      16.8   2.60e- 47 Age       
10 Age                           0.0650   0.00634    10.3   6.75e- 22 Age       
# ℹ 14 more rows
…
There were issues with some computations   A: x157

There were issues with some computations   A: x197

There were issues with some computations   A: x206

There were issues with some computations   A: x245

# Print RF results

print(tune_results_rf)

# Tuning results
# 5-fold cross-validation repeated 5 times 
# A tibble: 25 × 5
   splits           id      id2   .metrics          .notes           
   <list>           <chr>   <chr> <list>            <list>           
 1 <split [298/75]> Repeat1 Fold1 <tibble [98 × 6]> <tibble [0 × 3]> 
 2 <split [298/75]> Repeat1 Fold2 <tibble [98 × 6]> <tibble [0 × 3]> 
 3 <split [298/75]> Repeat1 Fold3 <tibble [98 × 6]> <tibble [0 × 3]> 
 4 <split [299/74]> Repeat1 Fold4 <tibble [0 × 6]>  <tibble [49 × 3]>
 5 <split [299/74]> Repeat1 Fold5 <tibble [98 × 6]> <tibble [0 × 3]> 
 6 <split [298/75]> Repeat2 Fold1 <tibble [98 × 6]> <tibble [0 × 3]> 
 7 <split [298/75]> Repeat2 Fold2 <tibble [98 × 6]> <tibble [0 × 3]> 
 8 <split [298/75]> Repeat2 Fold3 <tibble [0 × 6]>  <tibble [49 × 3]>
 9 <split [299/74]> Repeat2 Fold4 <tibble [98 × 6]> <tibble [0 × 3]> 
10 <split [299/74]> Repeat2 Fold5 <tibble [98 × 6]> <tibble [0 × 3]> 
# ℹ 15 more rows
…
